…
    ## # A tibble: 1 x 3
    ## # Groups:   phylum [1]
    ##   phylum        kingdom num_seqs
    ##   <chr>         <chr>      <int>
    ## 1 Crenarchaeota Archaea        2

Detailed analysis into phyla of interest: Metazoa: Chordata and
Arthropoda Viridiplantae: Magnoliophyta and Pinophyta Fungi: Ascomycota
and Basidiomycota

Analysis on genetic markers available for the selected organisms.

Number of sequences per marker for Metazoa

    ## # A tibble: 32 x 3
    ## # Groups:   Marker [21]
    ##    Marker    latlon_info Number_sequences
    ##    <chr>     <lgl>                  <int>
    ##  1 COI-5P    FALSE                   7595
    ##  2 COI-5P    TRUE                   58221
    ##  3 NA        FALSE                    368
    ##  4 NA        TRUE                    8882
    ##  5 28S-D2    FALSE                      4
    ##  6 28S-D2    TRUE                     316
    ##  7 CYTB      FALSE                     14
    ##  8 CYTB      TRUE                     138
    ##  9 28S-D2-D3 FALSE                      7
    ## 10 28S-D2-D3 TRUE                     132
    ## # ... with 22 more rows

    ## # A tibble: 32 x 3
    ## # Groups:   Marker [21]
    ##    Marker    locality_info Number_sequences
    ##    <chr>     <lgl>                    <int>
    ##  1 COI-5P    FALSE                    19980
    ##  2 COI-5P    TRUE                     45836
    ##  3 NA        FALSE                      138
    ##  4 NA        TRUE                      9112
    ##  5 28S-D2    FALSE                        4
    ##  6 28S-D2    TRUE                       316
    ##  7 CYTB      FALSE                        8
    ##  8 CYTB      TRUE                       144
    ##  9 28S-D2-D3 TRUE                       139
    ## 10 COI-3P    FALSE                        4
    ## # ... with 22 more rows
…
